…
``` r
# get a table of names and gender
examiner_names_gender <- examiner_names %>% 
  do(results = gender(.$examiner_name_first, method = "ssa")) %>% 
  unnest(cols = c(results), keep_empty = TRUE) %>% 
  select(
    examiner_name_first = name,
    gender,
    proportion_female
  )
examiner_names_gender
```

    ## # A tibble: 1,822 × 3
    ##    examiner_name_first gender proportion_female
    ##    <chr>               <chr>              <dbl>
    ##  1 AARON               male              0.0082
    ##  2 ABDEL               male              0     
    ##  3 ABDOU               male              0     
    ##  4 ABDUL               male              0     
    ##  5 ABDULHAKIM          male              0     
    ##  6 ABDULLAH            male              0     
    ##  7 ABDULLAHI           male              0     
    ##  8 ABIGAIL             female            0.998 
    ##  9 ABIMBOLA            female            0.944 
    ## 10 ABRAHAM             male              0.0031
    ## # … with 1,812 more rows
…
``` r
examiner_race <- examiner_race %>% 
  mutate(max_race_p = pmax(pred.asi, pred.bla, pred.his, pred.oth, pred.whi)) %>% 
  mutate(race = case_when(
    max_race_p == pred.asi ~ "Asian",
    max_race_p == pred.bla ~ "black",
    max_race_p == pred.his ~ "Hispanic",
    max_race_p == pred.oth ~ "other",
    max_race_p == pred.whi ~ "white",
    TRUE ~ NA_character_
  ))
examiner_race
```

    ## # A tibble: 3,806 × 8
    ##    surname    pred.whi pred.bla pred.his pred.asi pred.oth max_race_p race 
    ##    <chr>         <dbl>    <dbl>    <dbl>    <dbl>    <dbl>      <dbl> <chr>
    ##  1 HOWARD       0.643   0.295    0.0237   0.005     0.0333      0.643 white
    ##  2 YILDIRIM     0.861   0.0271   0.0609   0.0135    0.0372      0.861 white
    ##  3 HAMILTON     0.702   0.237    0.0245   0.0054    0.0309      0.702 white
    ##  4 MOSHER       0.947   0.00410  0.0241   0.00640   0.0185      0.947 white
    ##  5 BARR         0.827   0.117    0.0226   0.00590   0.0271      0.827 white
    ##  6 GRAY         0.687   0.251    0.0241   0.0054    0.0324      0.687 white
    ##  7 MCMILLIAN    0.359   0.574    0.0189   0.00260   0.0463      0.574 black
    ##  8 FORD         0.620   0.32     0.0237   0.0045    0.0313      0.620 white
    ##  9 STRZELECKA   0.666   0.0853   0.137    0.0797    0.0318      0.666 white
    ## 10 KIM          0.0252  0.00390  0.00650  0.945     0.0198      0.945 Asian
    ## # … with 3,796 more rows
…
